Batches Correlation Analysis”
…
1 Explore
Correlations

1.1 Variability of
Items

Check for columns with no variability (problem for calculating
correlation)

## No columns with only zeros found.

## # A tibble: 1,079 × 46
##    content.attack content.causingharm content.dehumanization content.form
##             <dbl>               <dbl>                  <dbl>        <dbl>
##  1              0                   0                      1            0
##  2              1                   0                      0            1
##  3              0                   0                      0            0
##  4              0                   1                      0            0
##  5              0                   0                      0            0
##  6              1                   0                      0            0
##  7              1                   0                      0            0
##  8              0                   0                      0            0
##  9              1                   0                      0            0
## 10              0                   0                      0            0
## # ℹ 1,069 more rows
## # ℹ 42 more variables: content.harassment <dbl>, content.hateful <dbl>,
## #   content.incitement <dbl>, content.incivility <dbl>, content.law <dbl>,
## #   content.misinformation <dbl>, content.mocking <dbl>,
## #   content.offensive <dbl>, content.opinion <dbl>, content.severity <dbl>,
## #   other.consequences <dbl>, other.example <dbl>, other.existence <dbl>,
## #   other.importance <dbl>, other.negating <dbl>, other.nonsense <dbl>, …

## No columns with only zeros found.

## # A tibble: 1,079 × 14
##    attack causingharm dehumanization  form harassment hateful incitement
##     <dbl>       <dbl>          <dbl> <dbl>      <dbl>   <dbl>      <dbl>
##  1      0           0              1     0          0       0          1
##  2      1           0              0     1          0       0          0
##  3      0           0              0     0          0       0          0
##  4      0           1              0     0          0       0          0
##  5      0           0              0     0          0       0          0
##  6      1           0              0     0          0       0          0
##  7      1           0              0     0          0       0          1
##  8      0           0              0     0          0       0          1
##  9      1           0              0     0          0       0          0
## 10      0           0              0     0          0       0          1
## # ℹ 1,069 more rows
## # ℹ 7 more variables: incivility <dbl>, law <dbl>, misinformation <dbl>,
## #   mocking <dbl>, offensive <dbl>, opinion <dbl>, severity <dbl>

## No columns with only zeros found.

## # A tibble: 1,079 × 7
##    consequences example existence importance negating nonsense subjective
##           <dbl>   <dbl>     <dbl>      <dbl>    <dbl>    <dbl>      <dbl>
##  1            0       0         0          0        0        0          0
##  2            0       0         0          0        0        0          0
##  3            0       0         0          0        0        1          0
##  4            0       0         0          0        0        0          0
##  5            0       0         0          0        1        1          0
##  6            0       0         0          0        0        0          0
##  7            0       0         0          0        0        0          0
##  8            0       0         0          0        0        0          0
##  9            0       0         0          0        0        0          0
## 10            0       0         0          0        0        0          0
## # ℹ 1,069 more rows

## No columns with only zeros found.

## # A tibble: 1,079 × 18
##      age caste characteristics class ideology minority others
##    <dbl> <dbl>           <dbl> <dbl>    <dbl>    <dbl>  <dbl>
##  1     0     0               0     0        0        0      1
##  2     0     0               0     0        0        0      1
##  3     0     0               0     0        0        0      0
##  4     0     0               0     0        0        0      0
##  5     0     0               0     0        0        0      0
##  6     0     0               0     0        0        0      0
##  7     0     0               0     0        0        0      0
##  8     0     0               0     0        0        0      0
##  9     0     0               0     0        0        0      0
## 10     0     0               0     0        0        0      0
## # ℹ 1,069 more rows
## # ℹ 11 more variables: physical_attributes <dbl>, profession <dbl>, race <dbl>,
## #   region <dbl>, religion <dbl>, sex <dbl>, sexual_orientation <dbl>,
## #   tradition <dbl>, tribe <dbl>, uncontrolled <dbl>, vulnerable <dbl>

## No columns with only zeros found.

## # A tibble: 1,079 × 5
##    badfaith general  hurt power prejudiced
##       <dbl>   <dbl> <dbl> <dbl>      <dbl>
##  1        0       0     0     0          0
##  2        0       0     0     0          0
##  3        0       0     0     0          0
##  4        0       0     0     0          0
##  5        0       0     0     0          0
##  6        0       0     0     0          0
##  7        0       0     0     0          0
##  8        0       0     0     0          0
##  9        0       0     0     0          0
## 10        0       0     0     0          0
## # ℹ 1,069 more rows

## No columns with only zeros found.

## # A tibble: 1,079 × 2
##    people person
##     <dbl>  <dbl>
##  1      1      0
##  2      0      0
##  3      0      0
##  4      0      1
##  5      0      0
##  6      1      1
##  7      1      0
##  8      1      1
##  9      0      0
## 10      0      1
## # ℹ 1,069 more rows
…
